<!-- <svg xmlns="http://www.w3.org/2000/svg" viewBox="0 0 841.9 595.3"><g fill="#61DAFB"><path d="M666.3 296.5c0-32.5-40.7-63.3-103.1-82.4 14.4-63.6 8-114.2-20.2-130.4-6.5-3.8-14.1-5.6-22.4-5.6v22.3c4.6 0 8.3.9 11.4 2.6 13.6 7.8 19.5 37.5 14.9 75.7-1.1 9.4-2.9 19.3-5.1 29.4-19.6-4.8-41-8.5-63.5-10.9-13.5-18.5-27.5-35.3-41.6-50 32.6-30.3 63.2-46.9 84-46.9V78c-27.5 0-63.5 19.6-99.9 53.6-36.4-33.8-72.4-53.2-99.9-53.2v22.3c20.7 0 51.4 16.5 84 46.6-14 14.7-28 31.4-41.3 49.9-22.6 2.4-44 6.1-63.6 11-2.3-10-4-19.7-5.2-29-4.7-38.2 1.1-67.9 14.6-75.8 3-1.8 6.9-2.6 11.5-2.6V78.5c-8.4 0-16 1.8-22.6 5.6-28.1 16.2-34.4 66.7-19.9 130.1-62.2 19.2-102.7 49.9-102.7 82.3 0 32.5 40.7 63.3 103.1 82.4-14.4 63.6-8 114.2 20.2 130.4 6.5 3.8 14.1 5.6 22.5 5.6 27.5 0 63.5-19.6 99.9-53.6 36.4 33.8 72.4 53.2 99.9 53.2 8.4 0 16-1.8 22.6-5.6 28.1-16.2 34.4-66.7 19.9-130.1 62-19.1 102.5-49.9 102.5-82.3zm-130.2-66.7c-3.7 12.9-8.3 26.2-13.5 39.5-4.1-8-8.4-16-13.1-24-4.6-8-9.5-15.8-14.4-23.4 14.2 2.1 27.9 4.7 41 7.9zm-45.8 106.5c-7.8 13.5-15.8 26.3-24.1 38.2-14.9 1.3-30 2-45.2 2-15.1 0-30.2-.7-45-1.9-8.3-11.9-16.4-24.6-24.2-38-7.6-13.1-14.5-26.4-20.8-39.8 6.2-13.4 13.2-26.8 20.7-39.9 7.8-13.5 15.8-26.3 24.1-38.2 14.9-1.3 30-2 45.2-2 15.1 0 30.2.7 45 1.9 8.3 11.9 16.4 24.6 24.2 38 7.6 13.1 14.5 26.4 20.8 39.8-6.3 13.4-13.2 26.8-20.7 39.9zm32.3-13c5.4 13.4 10 26.8 13.8 39.8-13.1 3.2-26.9 5.9-41.2 8 4.9-7.7 9.8-15.6 14.4-23.7 4.6-8 8.9-16.1 13-24.1zM421.2 430c-9.3-9.6-18.6-20.3-27.8-32 9 .4 18.2.7 27.5.7 9.4 0 18.7-.2 27.8-.7-9 11.7-18.3 22.4-27.5 32zm-74.4-58.9c-14.2-2.1-27.9-4.7-41-7.9 3.7-12.9 8.3-26.2 13.5-39.5 4.1 8 8.4 16 13.1 24 4.7 8 9.5 15.8 14.4 23.4zM420.7 163c9.3 9.6 18.6 20.3 27.8 32-9-.4-18.2-.7-27.5-.7-9.4 0-18.7.2-27.8.7 9-11.7 18.3-22.4 27.5-32zm-74 58.9c-4.9 7.7-9.8 15.6-14.4 23.7-4.6 8-8.9 16-13 24-5.4-13.4-10-26.8-13.8-39.8 13.1-3.1 26.9-5.8 41.2-7.9zm-90.5 125.2c-35.4-15.1-58.3-34.9-58.3-50.6 0-15.7 22.9-35.6 58.3-50.6 8.6-3.7 18-7 27.7-10.1 5.7 19.6 13.2 40 22.5 60.9-9.2 20.8-16.6 41.1-22.2 60.6-9.9-3.1-19.3-6.5-28-10.2zM310 490c-13.6-7.8-19.5-37.5-14.9-75.7 1.1-9.4 2.9-19.3 5.1-29.4 19.6 4.8 41 8.5 63.5 10.9 13.5 18.5 27.5 35.3 41.6 50-32.6 30.3-63.2 46.9-84 46.9-4.5-.1-8.3-1-11.3-2.7zm237.2-76.2c4.7 38.2-1.1 67.9-14.6 75.8-3 1.8-6.9 2.6-11.5 2.6-20.7 0-51.4-16.5-84-46.6 14-14.7 28-31.4 41.3-49.9 22.6-2.4 44-6.1 63.6-11 2.3 10.1 4.1 19.8 5.2 29.1zm38.5-66.7c-8.6 3.7-18 7-27.7 10.1-5.7-19.6-13.2-40-22.5-60.9 9.2-20.8 16.6-41.1 22.2-60.6 9.9 3.1 19.3 6.5 28.1 10.2 35.4 15.1 58.3 34.9 58.3 50.6-.1 15.7-23 35.6-58.4 50.6zM320.8 78.4z"/><circle cx="420.9" cy="296.5" r="45.7"/><path d="M520.5 78.1z"/></g></svg> -->

<svg version="1.0" xmlns="http://www.w3.org/2000/svg"
 width="1200.000000pt" height="1161.000000pt" viewBox="0 0 1200.000000 1161.000000">
<g transform="translate(0.000000,1161.000000) scale(0.100000,-0.100000)"
fill="#8b22b4" stroke="none">
<path d="M4184 11600 c-343 -45 -653 -234 -879 -537 -22 -29 -321 -560 -664
-1179 -527 -950 -622 -1127 -610 -1138 28 -26 2531 -1397 2543 -1393 6 3 353
622 771 1376 418 753 762 1370 765 1370 4 1 1001 -1688 1008 -1707 1 -5 -250
-152 -558 -327 -308 -175 -558 -321 -555 -323 2 -2 683 29 1512 69 l1509 74
693 1253 c381 690 690 1256 688 1258 -2 2 -221 -122 -487 -277 -392 -228 -485
-278 -495 -267 -6 7 -173 288 -369 623 -413 703 -411 701 -485 779 -128 134
-258 202 -478 250 l-158 34 -1625 16 c-1533 15 -1631 17 -1740 36 -119 21
-272 24 -386 10z"/>
<path d="M9325 7299 c-687 -396 -1253 -724 -1257 -728 -4 -4 345 -621 776
-1371 431 -751 783 -1366 783 -1367 -5 -4 -1989 16 -1993 20 -3 3 1 292 10
643 8 351 14 640 12 642 -2 1 -13 -12 -24 -30 -47 -79 -1412 -2617 -1412
-2627 0 -10 1405 -2459 1420 -2474 8 -9 17 224 26 761 l6 352 817 -2 816 -3
85 29 c104 35 163 64 260 129 167 112 133 63 1094 1587 484 767 897 1415 917
1441 50 60 168 247 213 337 94 186 132 373 123 607 -6 165 -21 247 -73 405
-31 93 -107 231 -682 1237 -356 623 -651 1133 -657 1133 -5 0 -572 -324 -1260
-721z"/>
<path d="M0 7563 c1 -5 217 -136 480 -293 264 -156 480 -287 480 -291 0 -3
-172 -296 -381 -650 -210 -354 -397 -680 -415 -724 -37 -90 -64 -225 -64 -324
0 -88 24 -232 53 -317 13 -38 372 -726 798 -1529 427 -803 784 -1482 794
-1510 27 -76 118 -250 177 -340 66 -102 230 -267 332 -335 100 -67 231 -128
369 -174 211 -69 130 -66 1573 -66 l1304 0 0 1465 0 1465 -1571 0 c-1253 0
-1570 3 -1566 13 8 20 977 1691 985 1698 4 3 254 -144 556 -328 301 -184 550
-332 552 -330 2 2 -354 581 -790 1288 l-793 1284 -1437 3 c-790 1 -1436 -1
-1436 -5z"/>
</g>
</svg>